{
  "__type__": "cc.AnimationClip",
  "_name": "BaDaDie_jn_hit",
  "_objFlags": 0,
  "_native": "",
  "_duration": 0.43333333333333335,
  "sample": 60,
  "speed": 1,
  "wrapMode": 1,
  "curveData": {
    "paths": {
      "hit": {
        "comps": {
          "cc.Sprite": {
            "spriteFrame": [
              {
                "frame": 0,
                "value": null
              },
              {
                "frame": 0.08333333333333333,
                "value": {
                  "__uuid__": "7d41933e-88fc-4729-bf65-92a468771fa7"
                }
              },
              {
                "frame": 0.16666666666666666,
                "value": {
                  "__uuid__": "cab0750f-9e20-4ce1-8692-a9c6a9e2b417"
                }
              },
              {
                "frame": 0.25,
                "value": {
                  "__uuid__": "32d17324-f1be-4e28-98b5-bb0b1d6950bb"
                }
              },
              {
                "frame": 0.3333333333333333,
                "value": {
                  "__uuid__": "778d03df-5a37-4127-ac43-fcf9b12be997"
                }
              },
              {
                "frame": 0.4166666666666667,
                "value": null
              }
            ]
          }
        }
      }
    }
  },
  "events": []
}