{
  "__type__": "cc.AnimationClip",
  "_name": "DaZuiFu_pg_hit",
  "_objFlags": 0,
  "_native": "",
  "_duration": 0.5833333333333334,
  "sample": 60,
  "speed": 1,
  "wrapMode": 1,
  "curveData": {
    "paths": {
      "baodian": {
        "props": {
          "scale": [
            {
              "frame": 0,
              "value": {
                "__type__": "cc.Vec2",
                "x": 0,
                "y": 0
              }
            },
            {
              "frame": 0.25,
              "value": {
                "__type__": "cc.Vec2",
                "x": 0.5,
                "y": 0.5
              }
            },
            {
              "frame": 0.5,
              "value": {
                "__type__": "cc.Vec2",
                "x": 0,
                "y": 0
              }
            }
          ]
        }
      },
      "baodian2": {
        "props": {
          "scale": [
            {
              "frame": 0.08333333333333333,
              "value": {
                "__type__": "cc.Vec2",
                "x": 0,
                "y": 0
              }
            },
            {
              "frame": 0.3333333333333333,
              "value": {
                "__type__": "cc.Vec2",
                "x": 0.5,
                "y": 0.5
              }
            },
            {
              "frame": 0.5833333333333334,
              "value": {
                "__type__": "cc.Vec2",
                "x": 0,
                "y": 0
              }
            }
          ]
        }
      }
    }
  },
  "events": []
}