{
  "__type__": "cc.AnimationClip",
  "_name": "DaKeLaiYi_pg_hit",
  "_objFlags": 0,
  "_native": "",
  "_duration": 0.48333333333333334,
  "sample": 60,
  "speed": 1,
  "wrapMode": 1,
  "curveData": {
    "paths": {
      "baodian1": {
        "comps": {
          "cc.Sprite": {
            "spriteFrame": [
              {
                "frame": 0,
                "value": {
                  "__uuid__": "e2b7fa91-3f22-4078-8a74-da729157d18a"
                }
              },
              {
                "frame": 0.06666666666666667,
                "value": {
                  "__uuid__": "66120b59-daab-4718-bdff-6f89a2bb7951"
                }
              },
              {
                "frame": 0.13333333333333333,
                "value": {
                  "__uuid__": "3f95f1f3-ef8f-4c8f-9783-dd01ac98f8fe"
                }
              },
              {
                "frame": 0.2,
                "value": {
                  "__uuid__": "bae439ec-f264-4376-baa7-ab762a72c530"
                }
              },
              {
                "frame": 0.26666666666666666,
                "value": {
                  "__uuid__": "532c17ce-4191-42ee-b560-0a9c8fe4e818"
                }
              },
              {
                "frame": 0.3333333333333333,
                "value": {
                  "__uuid__": "8d4cc047-8492-45d1-ab12-f32318d8b3b1"
                }
              },
              {
                "frame": 0.4,
                "value": {
                  "__uuid__": "2d9f2720-d95e-40e8-8579-71de52b19e66"
                }
              },
              {
                "frame": 0.4666666666666667,
                "value": null
              }
            ]
          }
        },
        "props": {
          "scale": [
            {
              "frame": 0,
              "value": {
                "__type__": "cc.Vec2",
                "x": 2,
                "y": 2
              }
            }
          ]
        }
      },
      "baodian2": {
        "props": {
          "scale": [
            {
              "frame": 0.06666666666666667,
              "value": {
                "__type__": "cc.Vec2",
                "x": 0,
                "y": 0
              }
            },
            {
              "frame": 0.13333333333333333,
              "value": {
                "__type__": "cc.Vec2",
                "x": 1.5,
                "y": 1.5
              }
            },
            {
              "frame": 0.2,
              "value": {
                "__type__": "cc.Vec2",
                "x": 0,
                "y": 0
              }
            }
          ]
        }
      }
    }
  },
  "events": []
}