{
  "__type__": "cc.AnimationClip",
  "_name": "DaShiHua_pg_hit",
  "_objFlags": 0,
  "_native": "",
  "_duration": 0.25,
  "sample": 60,
  "speed": 1,
  "wrapMode": "0",
  "curveData": {
    "paths": {
      "hit": {
        "props": {
          "scale": [
            {
              "frame": 0,
              "value": {
                "__type__": "cc.Vec2",
                "x": 0,
                "y": 0
              }
            },
            {
              "frame": 0.08333333333333333,
              "value": {
                "__type__": "cc.Vec2",
                "x": 2,
                "y": 2
              }
            },
            {
              "frame": 0.16666666666666666,
              "value": {
                "__type__": "cc.Vec2",
                "x": 0,
                "y": 0
              }
            }
          ]
        }
      },
      "hit2": {
        "props": {
          "scale": [
            {
              "frame": 0,
              "value": {
                "__type__": "cc.Vec2",
                "x": 0,
                "y": 0
              }
            },
            {
              "frame": 0.25,
              "value": {
                "__type__": "cc.Vec2",
                "x": 2,
                "y": 2
              }
            }
          ],
          "opacity": [
            {
              "frame": 0.16666666666666666,
              "value": 255
            },
            {
              "frame": 0.25,
              "value": 0
            }
          ]
        }
      }
    }
  },
  "events": []
}