{
  "__type__": "cc.AnimationClip",
  "_name": "DaZhuKui_pg_hit",
  "_objFlags": 0,
  "_native": "",
  "_duration": 0.3,
  "sample": 60,
  "speed": 1,
  "wrapMode": 1,
  "curveData": {
    "paths": {
      "baodian": {
        "props": {
          "scale": [
            {
              "frame": 0.08333333333333333,
              "value": {
                "__type__": "cc.Vec2",
                "x": 0,
                "y": 0
              }
            },
            {
              "frame": 0.16666666666666666,
              "value": {
                "__type__": "cc.Vec2",
                "x": 3,
                "y": 3
              }
            },
            {
              "frame": 0.3,
              "value": {
                "__type__": "cc.Vec2",
                "x": 0,
                "y": 0
              }
            }
          ]
        }
      }
    }
  },
  "events": []
}