{
  "__type__": "cc.AnimationClip",
  "_name": "GaLaGaLa_pg_hit",
  "_objFlags": 0,
  "_native": "",
  "_duration": 0.43333333333333335,
  "sample": 60,
  "speed": 1,
  "wrapMode": 1,
  "curveData": {
    "paths": {
      "hit": {
        "comps": {
          "cc.Sprite": {
            "spriteFrame": [
              {
                "frame": 0,
                "value": {
                  "__uuid__": "c8cbb7e2-c433-4cb8-b338-7375c2e73017"
                }
              },
              {
                "frame": 0.08333333333333333,
                "value": {
                  "__uuid__": "d8c88445-52c5-4792-bcf0-e42d48764227"
                }
              },
              {
                "frame": 0.16666666666666666,
                "value": {
                  "__uuid__": "d0e56fc5-0021-4790-b03d-ddec3633d5d7"
                }
              },
              {
                "frame": 0.25,
                "value": {
                  "__uuid__": "699b7a97-1d97-4413-9be1-055069db0965"
                }
              },
              {
                "frame": 0.3333333333333333,
                "value": {
                  "__uuid__": "ebdf11da-34f3-49f9-8d63-48be881bd58a"
                }
              },
              {
                "frame": 0.4166666666666667,
                "value": null
              }
            ]
          }
        }
      },
      "hit2": {
        "comps": {
          "cc.Sprite": {
            "spriteFrame": [
              {
                "frame": 0,
                "value": {
                  "__uuid__": "fe3fafbf-08f3-48e4-ab2b-87c052e4dc0a"
                }
              }
            ]
          }
        },
        "props": {
          "scale": [
            {
              "frame": 0,
              "value": {
                "__type__": "cc.Vec2",
                "x": 0,
                "y": 0
              }
            },
            {
              "frame": 0.08333333333333333,
              "value": {
                "__type__": "cc.Vec2",
                "x": 1,
                "y": 1
              }
            },
            {
              "frame": 0.16666666666666666,
              "value": {
                "__type__": "cc.Vec2",
                "x": 0,
                "y": 0
              }
            }
          ]
        }
      }
    }
  },
  "events": []
}