{
  "__type__": "cc.AnimationClip",
  "_name": "GengGui_jn_hit",
  "_objFlags": 0,
  "_native": "",
  "_duration": 0.3333333333333333,
  "sample": 60,
  "speed": 1,
  "wrapMode": 1,
  "curveData": {
    "paths": {
      "hit": {
        "props": {
          "scale": [
            {
              "frame": 0,
              "value": {
                "__type__": "cc.Vec2",
                "x": 0,
                "y": 0
              }
            },
            {
              "frame": 0.08333333333333333,
              "value": {
                "__type__": "cc.Vec2",
                "x": 1.5,
                "y": 1.5
              }
            },
            {
              "frame": 0.16666666666666666,
              "value": {
                "__type__": "cc.Vec2",
                "x": 0,
                "y": 0
              }
            }
          ]
        }
      },
      "hit2": {
        "props": {
          "scale": [
            {
              "frame": 0,
              "value": {
                "__type__": "cc.Vec2",
                "x": 1,
                "y": 1
              }
            },
            {
              "frame": 0.3333333333333333,
              "value": {
                "__type__": "cc.Vec2",
                "x": 3,
                "y": 3
              }
            }
          ],
          "opacity": [
            {
              "frame": 0,
              "value": 0
            },
            {
              "frame": 0.08333333333333333,
              "value": 255
            },
            {
              "frame": 0.3333333333333333,
              "value": 0
            }
          ]
        }
      }
    }
  },
  "events": []
}