{
  "__type__": "cc.AnimationClip",
  "_name": "JuCaoYe_pg_hit",
  "_objFlags": 0,
  "_native": "",
  "_duration": 0.3333333333333333,
  "sample": 60,
  "speed": 1,
  "wrapMode": 1,
  "curveData": {
    "paths": {
      "baodian": {
        "props": {
          "scale": [
            {
              "frame": 0.08333333333333333,
              "value": {
                "__type__": "cc.Vec2",
                "x": 0,
                "y": 0
              }
            },
            {
              "frame": 0.16666666666666666,
              "value": {
                "__type__": "cc.Vec2",
                "x": 1.5,
                "y": 1.5
              }
            },
            {
              "frame": 0.25,
              "value": {
                "__type__": "cc.Vec2",
                "x": 0,
                "y": 0
              }
            }
          ],
          "rotation": [
            {
              "frame": 0,
              "value": 0
            },
            {
              "frame": 0.3333333333333333,
              "value": 30
            }
          ]
        }
      },
      "baodian2": {
        "props": {
          "scale": [
            {
              "frame": 0.08333333333333333,
              "value": {
                "__type__": "cc.Vec2",
                "x": 0,
                "y": 0
              },
              "curve": [
                -0.018983402489626537,
                0.437448132780083,
                0.5521784232365146,
                1.0112033195020746
              ]
            },
            {
              "frame": 0.3333333333333333,
              "value": {
                "__type__": "cc.Vec2",
                "x": 1,
                "y": 1
              }
            }
          ],
          "opacity": [
            {
              "frame": 0.25,
              "value": 255
            },
            {
              "frame": 0.3333333333333333,
              "value": 0
            }
          ]
        }
      }
    }
  },
  "events": []
}