{
  "__type__": "cc.AnimationClip",
  "_name": "DianJiMoShou_pg_Hit",
  "_objFlags": 0,
  "_native": "",
  "_duration": 0.48333333333333334,
  "sample": 60,
  "speed": 1,
  "wrapMode": "2",
  "curveData": {
    "paths": {
      "hit": {
        "comps": {
          "cc.Sprite": {
            "spriteFrame": [
              {
                "frame": 0,
                "value": null
              },
              {
                "frame": 0.06666666666666667,
                "value": {
                  "__uuid__": "612981a3-ed52-4ce9-9f83-486aae506945"
                }
              },
              {
                "frame": 0.13333333333333333,
                "value": {
                  "__uuid__": "56a34b4e-e043-4eb5-a713-e0b175c89585"
                }
              },
              {
                "frame": 0.2,
                "value": {
                  "__uuid__": "07f7ef29-0c20-487c-9d3f-6ed9f881231a"
                }
              },
              {
                "frame": 0.26666666666666666,
                "value": {
                  "__uuid__": "0ed52a30-edc5-425d-9569-a510e15cabb2"
                }
              },
              {
                "frame": 0.3333333333333333,
                "value": {
                  "__uuid__": "9707c192-b269-4cb5-a659-8bd9e9fa4b09"
                }
              },
              {
                "frame": 0.4,
                "value": null
              }
            ]
          }
        }
      },
      "hit2": {
        "props": {
          "position": [
            {
              "frame": 0,
              "value": [
                -12.7,
                3.5
              ]
            }
          ],
          "scale": [
            {
              "frame": 0,
              "value": {
                "__type__": "cc.Vec2",
                "x": 0,
                "y": 0
              }
            },
            {
              "frame": 0.08333333333333333,
              "value": {
                "__type__": "cc.Vec2",
                "x": 2,
                "y": 2
              }
            },
            {
              "frame": 0.16666666666666666,
              "value": {
                "__type__": "cc.Vec2",
                "x": 0,
                "y": 0
              }
            }
          ]
        }
      },
      "shandian": {
        "comps": {
          "cc.Sprite": {
            "spriteFrame": [
              {
                "frame": 0,
                "value": {
                  "__uuid__": "b7aec452-b4f0-4caf-86b5-f5de427b03bb"
                }
              },
              {
                "frame": 0.06666666666666667,
                "value": {
                  "__uuid__": "71f4586d-1bf4-4235-a906-7cf110d1f145"
                }
              },
              {
                "frame": 0.13333333333333333,
                "value": {
                  "__uuid__": "42559a1d-9ecd-4c8b-a0ad-d6e945e1227e"
                }
              },
              {
                "frame": 0.2,
                "value": {
                  "__uuid__": "1166aea8-f544-441b-8c91-8846b98eddf6"
                }
              },
              {
                "frame": 0.26666666666666666,
                "value": {
                  "__uuid__": "e3d471ce-6598-4e0f-b083-6e39e7efc42f"
                }
              },
              {
                "frame": 0.3333333333333333,
                "value": {
                  "__uuid__": "e1571592-9bd5-4802-a39e-4858ccb8c14e"
                }
              },
              {
                "frame": 0.4,
                "value": {
                  "__uuid__": "53cd1e35-9638-4041-a1f4-00fb297242ae"
                }
              },
              {
                "frame": 0.4666666666666667,
                "value": null
              }
            ]
          }
        },
        "props": {
          "opacity": [
            {
              "frame": 0,
              "value": 200
            }
          ]
        }
      }
    }
  },
  "events": []
}