{
  "__type__": "cc.AnimationClip",
  "_name": "LuKaLiOu_jn_hit",
  "_objFlags": 0,
  "_native": "",
  "_duration": 0.375,
  "sample": 24,
  "speed": 1,
  "wrapMode": 1,
  "curveData": {
    "paths": {
      "LuKaLiOu_star01_00": {
        "comps": {
          "cc.Sprite": {
            "spriteFrame": [
              {
                "frame": 0,
                "value": {
                  "__uuid__": "af1546e9-e819-43d4-be7c-f676930dced6"
                }
              },
              {
                "frame": 0.041666666666666664,
                "value": {
                  "__uuid__": "13656d0a-eb2f-483e-98d6-9ef408a4725e"
                }
              }
            ]
          }
        },
        "props": {
          "scale": [
            {
              "frame": 0,
              "value": {
                "__type__": "cc.Vec2",
                "x": 1,
                "y": 1
              }
            },
            {
              "frame": 0.041666666666666664,
              "value": {
                "__type__": "cc.Vec2",
                "x": 1.1,
                "y": 1.1
              }
            },
            {
              "frame": 0.16666666666666666,
              "value": {
                "__type__": "cc.Vec2",
                "x": 0,
                "y": 0
              }
            }
          ],
          "opacity": [],
          "position": [
            {
              "frame": 0,
              "value": [
                0,
                18
              ]
            }
          ]
        }
      },
      "LuKaLiOu_kuosanquan_00": {
        "props": {
          "scale": [
            {
              "frame": 0,
              "value": {
                "__type__": "cc.Vec2",
                "x": 1,
                "y": 0.5
              }
            },
            {
              "frame": 0.25,
              "value": {
                "__type__": "cc.Vec2",
                "x": 2.1,
                "y": 1
              }
            }
          ],
          "opacity": [
            {
              "frame": 0.125,
              "value": 255
            },
            {
              "frame": 0.25,
              "value": 0
            }
          ]
        }
      },
      "LuKaLiOu_di_00": {
        "props": {
          "scale": [
            {
              "frame": 0,
              "value": {
                "__type__": "cc.Vec2",
                "x": 1,
                "y": 1
              }
            },
            {
              "frame": 0.125,
              "value": {
                "__type__": "cc.Vec2",
                "x": 1.4,
                "y": 1.4
              }
            },
            {
              "frame": 0.3333333333333333,
              "value": {
                "__type__": "cc.Vec2",
                "x": 2,
                "y": 1.6
              }
            }
          ],
          "opacity": [
            {
              "frame": 0.20833333333333334,
              "value": 255
            },
            {
              "frame": 0.3333333333333333,
              "value": 0
            }
          ]
        }
      },
      "LuKaLiOu_sankai_00": {
        "comps": {
          "cc.Sprite": {
            "spriteFrame": [
              {
                "frame": 0.08333333333333333,
                "value": {
                  "__uuid__": "704f3d38-e267-4378-8962-dd1c45ea90f7"
                }
              },
              {
                "frame": 0.125,
                "value": {
                  "__uuid__": "be211710-38d0-4282-8d8b-0c2f6163a6c5"
                }
              },
              {
                "frame": 0.16666666666666666,
                "value": {
                  "__uuid__": "d341e6e9-d1f1-4e6e-a498-ddb5c034b577"
                }
              },
              {
                "frame": 0.20833333333333334,
                "value": {
                  "__uuid__": "c10a3625-eb73-42d8-9fdc-c34b5d92513d"
                }
              }
            ]
          }
        },
        "props": {
          "position": [
            {
              "frame": 0,
              "value": [
                0,
                21
              ]
            }
          ],
          "scale": [
            {
              "frame": 0,
              "value": {
                "__type__": "cc.Vec2",
                "x": 0,
                "y": 0
              }
            },
            {
              "frame": 0.08333333333333333,
              "value": {
                "__type__": "cc.Vec2",
                "x": 1.5,
                "y": 1.5
              }
            },
            {
              "frame": 0.25,
              "value": {
                "__type__": "cc.Vec2",
                "x": 1.7,
                "y": 1.7
              }
            },
            {
              "frame": 0.375,
              "value": {
                "__type__": "cc.Vec2",
                "x": 2,
                "y": 2
              }
            }
          ],
          "opacity": [
            {
              "frame": 0.2916666666666667,
              "value": 255
            },
            {
              "frame": 0.375,
              "value": 0
            }
          ]
        }
      }
    }
  },
  "events": []
}