{
  "__type__": "cc.AnimationClip",
  "_name": "LuKaLiOu_pg_fx",
  "_objFlags": 0,
  "_native": "",
  "_duration": 0.25,
  "sample": 24,
  "speed": 1,
  "wrapMode": 1,
  "curveData": {
    "paths": {
      "LuKaLiOu_guangqiu01_00": {
        "comps": {
          "cc.Sprite": {
            "spriteFrame": [
              {
                "frame": 0,
                "value": {
                  "__uuid__": "085b9d3a-d073-4287-a94a-334979b4dc18"
                }
              },
              {
                "frame": 0.041666666666666664,
                "value": {
                  "__uuid__": "9132c2ba-fa1f-41fb-8f59-498ad8c677c1"
                }
              },
              {
                "frame": 0.08333333333333333,
                "value": {
                  "__uuid__": "f9d509ba-10d8-4930-afdf-9f968f0cdc2b"
                }
              },
              {
                "frame": 0.125,
                "value": {
                  "__uuid__": "8e13ef08-e65a-463b-bb52-24be10147ed7"
                }
              },
              {
                "frame": 0.16666666666666666,
                "value": {
                  "__uuid__": "2238445b-3407-41e1-8731-8d3d603f5041"
                }
              },
              {
                "frame": 0.20833333333333334,
                "value": {
                  "__uuid__": "f0dda05e-4e71-4559-a753-14e42665d6d0"
                }
              }
            ]
          }
        },
        "props": {
          "scale": [
            {
              "frame": 0,
              "value": {
                "__type__": "cc.Vec2",
                "x": 0.6,
                "y": 0.6
              }
            }
          ]
        }
      }
    }
  },
  "events": []
}