{
  "__type__": "cc.AnimationClip",
  "_name": "YaZuiHuoShou_pg_hit",
  "_objFlags": 0,
  "_native": "",
  "_duration": 0.48333333333333334,
  "sample": 60,
  "speed": 1,
  "wrapMode": 1,
  "curveData": {
    "paths": {
      "huo_baozha": {
        "comps": {
          "cc.Sprite": {
            "spriteFrame": [
              {
                "frame": 0,
                "value": {
                  "__uuid__": "5dd257d9-661f-406e-aaee-ccf77fea6925"
                }
              },
              {
                "frame": 0.06666666666666667,
                "value": {
                  "__uuid__": "a65cd616-b7ec-4661-846a-e573d2449eaf"
                }
              },
              {
                "frame": 0.13333333333333333,
                "value": {
                  "__uuid__": "fd88d757-ec6b-4efc-beb2-e988b2ac6240"
                }
              },
              {
                "frame": 0.2,
                "value": {
                  "__uuid__": "6136f0d2-58df-47ef-ba51-5eef8bdff92f"
                }
              },
              {
                "frame": 0.26666666666666666,
                "value": {
                  "__uuid__": "8ec25284-ec2a-418f-a8f3-d26ef3745597"
                }
              },
              {
                "frame": 0.3333333333333333,
                "value": {
                  "__uuid__": "77bc42e5-2819-4831-a0e5-3bf0c58a0c0d"
                }
              },
              {
                "frame": 0.4,
                "value": null
              }
            ]
          }
        },
        "props": {
          "position": [
            {
              "frame": 0,
              "value": [
                0,
                -1
              ]
            }
          ],
          "scale": [
            {
              "frame": 0,
              "value": {
                "__type__": "cc.Vec2",
                "x": 0.7,
                "y": 0.7
              }
            }
          ],
          "rotation": [
            {
              "frame": 0,
              "value": 60
            }
          ]
        }
      },
      "huo_baozha2": {
        "comps": {
          "cc.Sprite": {
            "spriteFrame": [
              {
                "frame": 0,
                "value": null
              },
              {
                "frame": 0.06666666666666667,
                "value": {
                  "__uuid__": "5dd257d9-661f-406e-aaee-ccf77fea6925"
                }
              },
              {
                "frame": 0.13333333333333333,
                "value": {
                  "__uuid__": "a65cd616-b7ec-4661-846a-e573d2449eaf"
                }
              },
              {
                "frame": 0.2,
                "value": {
                  "__uuid__": "fd88d757-ec6b-4efc-beb2-e988b2ac6240"
                }
              },
              {
                "frame": 0.26666666666666666,
                "value": {
                  "__uuid__": "6136f0d2-58df-47ef-ba51-5eef8bdff92f"
                }
              },
              {
                "frame": 0.3333333333333333,
                "value": {
                  "__uuid__": "8ec25284-ec2a-418f-a8f3-d26ef3745597"
                }
              },
              {
                "frame": 0.4,
                "value": {
                  "__uuid__": "77bc42e5-2819-4831-a0e5-3bf0c58a0c0d"
                }
              },
              {
                "frame": 0.4666666666666667,
                "value": null
              }
            ]
          }
        },
        "props": {
          "scale": [
            {
              "frame": 0,
              "value": {
                "__type__": "cc.Vec2",
                "x": 0.6,
                "y": 0.6
              }
            }
          ],
          "position": [
            {
              "frame": 0,
              "value": [
                -1.6,
                -22.6
              ]
            }
          ],
          "rotation": [
            {
              "frame": 0,
              "value": 160
            }
          ]
        }
      }
    }
  },
  "events": []
}