{
  "__type__": "cc.AnimationClip",
  "_name": "YiBu_pg_hit",
  "_objFlags": 0,
  "_native": "",
  "_duration": 0.4166666666666667,
  "sample": 60,
  "speed": 1,
  "wrapMode": 1,
  "curveData": {
    "paths": {
      "hit": {
        "comps": {
          "cc.Sprite": {
            "spriteFrame": [
              {
                "frame": 0,
                "value": {
                  "__uuid__": "a95c9e94-6d85-4dd7-97ab-fece575a4393"
                }
              },
              {
                "frame": 0.06666666666666667,
                "value": {
                  "__uuid__": "4bf9b715-10ae-4c2c-a1b8-893616e4b0a3"
                }
              },
              {
                "frame": 0.13333333333333333,
                "value": {
                  "__uuid__": "55b37764-bba0-4d1c-9dfa-b4abb20e8279"
                }
              },
              {
                "frame": 0.2,
                "value": {
                  "__uuid__": "e6f9ceba-ebd9-45a9-8dcd-164d5026b483"
                }
              },
              {
                "frame": 0.26666666666666666,
                "value": {
                  "__uuid__": "14260a8b-3bc5-454b-91ad-ccb1c6b02dea"
                }
              },
              {
                "frame": 0.3333333333333333,
                "value": {
                  "__uuid__": "14629573-7361-4ba9-a755-7499819e819a"
                }
              },
              {
                "frame": 0.4,
                "value": null
              }
            ]
          }
        }
      }
    }
  },
  "events": []
}