{
  "__type__": "cc.AnimationClip",
  "_name": "YiFeiErTaEr_jn_fx",
  "_objFlags": 0,
  "_native": "",
  "_duration": 0,
  "sample": 24,
  "speed": 1,
  "wrapMode": 1,
  "curveData": {
    "paths": {
      "fx_YiPeiErTaEr_qiu_tuiwei_00": {
        "props": {
          "position": [
            {
              "frame": 0,
              "value": [
                -80,
                0
              ]
            }
          ]
        }
      },
      "fx_YiPeiErTaEr_circle_00": {
        "props": {
          "scale": [
            {
              "frame": 0,
              "value": {
                "__type__": "cc.Vec2",
                "x": 1.1,
                "y": 1.1
              }
            }
          ],
          "rotation": [
            {
              "frame": 0,
              "value": 44
            }
          ]
        }
      },
      "fx_YiPeiErTaEr_glow_00": {
        "props": {
          "scale": [
            {
              "frame": 0,
              "value": {
                "__type__": "cc.Vec2",
                "x": 1,
                "y": 0.8
              }
            }
          ]
        }
      }
    }
  },
  "events": []
}