{
  "__type__": "cc.AnimationClip",
  "_name": "YiFeiErTaEr_jn_hit",
  "_objFlags": 0,
  "_native": "",
  "_duration": 0.25,
  "sample": 24,
  "speed": 1,
  "wrapMode": 1,
  "curveData": {
    "paths": {
      "fx_YiPeiErTaEr_jianshe_shen_00": {
        "props": {
          "scale": [
            {
              "frame": 0,
              "value": {
                "__type__": "cc.Vec2",
                "x": 0,
                "y": 0
              }
            },
            {
              "frame": 0.041666666666666664,
              "value": {
                "__type__": "cc.Vec2",
                "x": 2.5,
                "y": 3.5
              }
            }
          ],
          "opacity": [
            {
              "frame": 0.08333333333333333,
              "value": 255
            },
            {
              "frame": 0.16666666666666666,
              "value": 0
            }
          ],
          "position": [
            {
              "frame": 0.041666666666666664,
              "value": [
                41,
                189
              ]
            },
            {
              "frame": 0.08333333333333333,
              "value": [
                45,
                216
              ]
            }
          ],
          "rotation": [
            {
              "frame": 0.041666666666666664,
              "value": 9
            }
          ]
        }
      },
      "fx_YiPeiErTaEr_jianshe_qian_00": {
        "props": {
          "scale": [
            {
              "frame": 0,
              "value": {
                "__type__": "cc.Vec2",
                "x": 0,
                "y": 0
              }
            },
            {
              "frame": 0.041666666666666664,
              "value": {
                "__type__": "cc.Vec2",
                "x": 2.5,
                "y": 3
              }
            },
            {
              "frame": 0.08333333333333333,
              "value": {
                "__type__": "cc.Vec2",
                "x": 2.5,
                "y": 3
              }
            }
          ],
          "position": [
            {
              "frame": 0.041666666666666664,
              "value": [
                96,
                70
              ]
            },
            {
              "frame": 0.08333333333333333,
              "value": [
                151,
                125
              ]
            }
          ],
          "opacity": [
            {
              "frame": 0.08333333333333333,
              "value": 255
            },
            {
              "frame": 0.16666666666666666,
              "value": 0
            }
          ],
          "rotation": [
            {
              "frame": 0.041666666666666664,
              "value": 41
            }
          ]
        }
      },
      "fx_YiPeiErTaEr_glow02_00": {
        "props": {
          "scale": [
            {
              "frame": 0,
              "value": {
                "__type__": "cc.Vec2",
                "x": 1,
                "y": 1
              }
            }
          ],
          "position": [],
          "opacity": [
            {
              "frame": 0,
              "value": 255
            },
            {
              "frame": 0.08333333333333333,
              "value": 0
            }
          ]
        }
      },
      "fx_YiPeiErTaEr_di_di_00": {
        "props": {
          "position": [],
          "scale": [
            {
              "frame": 0,
              "value": {
                "__type__": "cc.Vec2",
                "x": 1,
                "y": 1
              }
            },
            {
              "frame": 0.16666666666666666,
              "value": {
                "__type__": "cc.Vec2",
                "x": 2,
                "y": 2
              }
            }
          ],
          "opacity": [
            {
              "frame": 0.125,
              "value": 255
            },
            {
              "frame": 0.20833333333333334,
              "value": 0
            }
          ]
        }
      },
      "fx_YiPeiErTaEr_sankai01_00": {
        "props": {
          "scale": [
            {
              "frame": 0,
              "value": {
                "__type__": "cc.Vec2",
                "x": 0,
                "y": 0
              }
            },
            {
              "frame": 0.08333333333333333,
              "value": {
                "__type__": "cc.Vec2",
                "x": 1.4,
                "y": 1.4
              }
            },
            {
              "frame": 0.16666666666666666,
              "value": {
                "__type__": "cc.Vec2",
                "x": 2.9,
                "y": 2
              }
            }
          ],
          "opacity": [
            {
              "frame": 0.08333333333333333,
              "value": 255
            },
            {
              "frame": 0.16666666666666666,
              "value": 0
            }
          ],
          "position": [
            {
              "frame": 0,
              "value": [
                0,
                13
              ]
            },
            {
              "frame": 0.041666666666666664,
              "value": [
                0,
                5
              ]
            }
          ]
        }
      },
      "fx_YiPeiErTaEr_sankai02_00": {
        "props": {
          "scale": [
            {
              "frame": 0,
              "value": {
                "__type__": "cc.Vec2",
                "x": 0,
                "y": 0
              }
            },
            {
              "frame": 0.041666666666666664,
              "value": {
                "__type__": "cc.Vec2",
                "x": 1,
                "y": 1
              }
            },
            {
              "frame": 0.16666666666666666,
              "value": {
                "__type__": "cc.Vec2",
                "x": 3.5,
                "y": 2.2
              }
            },
            {
              "frame": 0.20833333333333334,
              "value": {
                "__type__": "cc.Vec2",
                "x": 3.75,
                "y": 2.5
              }
            },
            {
              "frame": 0.25,
              "value": {
                "__type__": "cc.Vec2",
                "x": 4,
                "y": 2.5
              }
            }
          ],
          "opacity": [
            {
              "frame": 0.16666666666666666,
              "value": 255
            },
            {
              "frame": 0.25,
              "value": 0
            }
          ],
          "position": []
        }
      },
      "fx_YiPeiErTaEr_jianshe_qian_01": {
        "props": {
          "scale": [
            {
              "frame": 0,
              "value": {
                "__type__": "cc.Vec2",
                "x": 0,
                "y": 0
              }
            },
            {
              "frame": 0.041666666666666664,
              "value": {
                "__type__": "cc.Vec2",
                "x": 2,
                "y": 2.5
              }
            }
          ],
          "position": [
            {
              "frame": 0.041666666666666664,
              "value": [
                -28,
                113
              ]
            },
            {
              "frame": 0.08333333333333333,
              "value": [
                -40,
                160
              ]
            }
          ],
          "opacity": [
            {
              "frame": 0.08333333333333333,
              "value": 255
            },
            {
              "frame": 0.16666666666666666,
              "value": 0
            }
          ],
          "rotation": [
            {
              "frame": 0.041666666666666664,
              "value": -22
            }
          ]
        }
      },
      "fx_YiPeiErTaEr_jianshe_qian_02": {
        "props": {
          "scale": [
            {
              "frame": 0,
              "value": {
                "__type__": "cc.Vec2",
                "x": 0,
                "y": 0
              }
            },
            {
              "frame": 0.041666666666666664,
              "value": {
                "__type__": "cc.Vec2",
                "x": 2.4,
                "y": 3.5
              }
            }
          ],
          "opacity": [
            {
              "frame": 0.08333333333333333,
              "value": 255
            },
            {
              "frame": 0.16666666666666666,
              "value": 0
            }
          ],
          "position": [
            {
              "frame": 0.041666666666666664,
              "value": [
                -120,
                123
              ]
            },
            {
              "frame": 0.08333333333333333,
              "value": [
                -134,
                145
              ]
            }
          ],
          "rotation": [
            {
              "frame": 0.041666666666666664,
              "value": -35
            }
          ]
        }
      },
      "fx_YiPeiErTaEr_jianshe_shen_01": {
        "props": {
          "scale": [
            {
              "frame": 0,
              "value": {
                "__type__": "cc.Vec2",
                "x": 0,
                "y": 0
              }
            },
            {
              "frame": 0.041666666666666664,
              "value": {
                "__type__": "cc.Vec2",
                "x": 2,
                "y": 2.5
              }
            }
          ],
          "opacity": [
            {
              "frame": 0.08333333333333333,
              "value": 255
            },
            {
              "frame": 0.16666666666666666,
              "value": 0
            }
          ],
          "position": [
            {
              "frame": 0.041666666666666664,
              "value": [
                100,
                109
              ]
            },
            {
              "frame": 0.08333333333333333,
              "value": [
                121,
                148
              ]
            }
          ],
          "rotation": [
            {
              "frame": 0.041666666666666664,
              "value": 34
            }
          ]
        }
      },
      "fx_YiPeiErTaEr_jianshe_qian_03": {
        "props": {
          "scale": [
            {
              "frame": 0,
              "value": {
                "__type__": "cc.Vec2",
                "x": 0,
                "y": 0
              }
            },
            {
              "frame": 0.041666666666666664,
              "value": {
                "__type__": "cc.Vec2",
                "x": 2,
                "y": 3
              }
            }
          ],
          "position": [
            {
              "frame": 0.041666666666666664,
              "value": [
                140,
                47
              ]
            },
            {
              "frame": 0.08333333333333333,
              "value": [
                177,
                67
              ]
            }
          ],
          "opacity": [
            {
              "frame": 0.08333333333333333,
              "value": 255
            },
            {
              "frame": 0.16666666666666666,
              "value": 0
            }
          ],
          "rotation": [
            {
              "frame": 0.041666666666666664,
              "value": 61
            }
          ]
        }
      },
      "fx_YiPeiErTaEr_jianshe_qian_04": {
        "props": {
          "scale": [
            {
              "frame": 0,
              "value": {
                "__type__": "cc.Vec2",
                "x": 0,
                "y": 0
              }
            },
            {
              "frame": 0.041666666666666664,
              "value": {
                "__type__": "cc.Vec2",
                "x": 2,
                "y": 2.5
              }
            }
          ],
          "position": [
            {
              "frame": 0.041666666666666664,
              "value": [
                -138,
                44
              ]
            },
            {
              "frame": 0.08333333333333333,
              "value": [
                -159,
                50
              ]
            }
          ],
          "rotation": [],
          "opacity": [
            {
              "frame": 0.08333333333333333,
              "value": 255
            },
            {
              "frame": 0.16666666666666666,
              "value": 0
            }
          ]
        }
      }
    }
  },
  "events": []
}