{
  "__type__": "cc.AnimationClip",
  "_name": "loading",
  "_objFlags": 0,
  "_native": "",
  "_duration": 2.183333333333333,
  "sample": 60,
  "speed": 1,
  "wrapMode": "2",
  "curveData": {
    "paths": {
      "loading/Quan": {
        "props": {
          "scale": [
            {
              "frame": 0,
              "value": {
                "__type__": "cc.Vec2",
                "x": 1,
                "y": 1
              }
            },
            {
              "frame": 0.31666666666666665,
              "value": {
                "__type__": "cc.Vec2",
                "x": 0.6,
                "y": 0.6
              }
            },
            {
              "frame": 0.4166666666666667,
              "value": {
                "__type__": "cc.Vec2",
                "x": 1.2,
                "y": 1.2
              }
            },
            {
              "frame": 0.5,
              "value": {
                "__type__": "cc.Vec2",
                "x": 0.8,
                "y": 0.8
              }
            },
            {
              "frame": 0.5833333333333334,
              "value": {
                "__type__": "cc.Vec2",
                "x": 1,
                "y": 1
              }
            }
          ],
          "position": [
            {
              "frame": 0,
              "value": [
                -1.4,
                23.3
              ]
            },
            {
              "frame": 0.4166666666666667,
              "value": [
                -1.4,
                -21.5
              ]
            },
            {
              "frame": 0.9833333333333333,
              "value": [
                -1.4,
                -21.5
              ]
            },
            {
              "frame": 1.3666666666666667,
              "value": [
                -1.4,
                23.3
              ]
            }
          ]
        }
      },
      "loading/img_loading_green": {
        "props": {
          "position": [
            {
              "frame": 0,
              "value": [
                22,
                1
              ]
            },
            {
              "frame": 0.4166666666666667,
              "value": [
                -23.8,
                1
              ]
            },
            {
              "frame": 0.9833333333333333,
              "value": [
                -23.8,
                1
              ]
            },
            {
              "frame": 1.3666666666666667,
              "value": [
                22,
                1
              ]
            }
          ],
          "scale": [
            {
              "frame": 0,
              "value": {
                "__type__": "cc.Vec2",
                "x": 1,
                "y": 1
              }
            },
            {
              "frame": 0.31666666666666665,
              "value": {
                "__type__": "cc.Vec2",
                "x": 0.6,
                "y": 0.6
              }
            },
            {
              "frame": 0.4166666666666667,
              "value": {
                "__type__": "cc.Vec2",
                "x": 1.2,
                "y": 1.2
              }
            },
            {
              "frame": 0.5,
              "value": {
                "__type__": "cc.Vec2",
                "x": 0.8,
                "y": 0.8
              }
            },
            {
              "frame": 0.5833333333333334,
              "value": {
                "__type__": "cc.Vec2",
                "x": 1,
                "y": 1
              }
            }
          ]
        }
      },
      "loading/img_loading_red": {
        "props": {
          "position": [
            {
              "frame": 0,
              "value": [
                -24.2,
                0.7
              ]
            },
            {
              "frame": 0.4166666666666667,
              "value": [
                20.8,
                -0.2
              ]
            },
            {
              "frame": 0.9833333333333333,
              "value": [
                20.8,
                -0.2
              ]
            },
            {
              "frame": 1.3666666666666667,
              "value": [
                -24.2,
                0.7
              ]
            }
          ],
          "scale": [
            {
              "frame": 0,
              "value": {
                "__type__": "cc.Vec2",
                "x": 1,
                "y": 1
              }
            },
            {
              "frame": 0.31666666666666665,
              "value": {
                "__type__": "cc.Vec2",
                "x": 0.6,
                "y": 0.6
              }
            },
            {
              "frame": 0.4166666666666667,
              "value": {
                "__type__": "cc.Vec2",
                "x": 1.2,
                "y": 1.2
              }
            },
            {
              "frame": 0.5,
              "value": {
                "__type__": "cc.Vec2",
                "x": 0.8,
                "y": 0.8
              }
            },
            {
              "frame": 0.5833333333333334,
              "value": {
                "__type__": "cc.Vec2",
                "x": 1,
                "y": 1
              }
            }
          ]
        }
      },
      "loading/img_loading_yellow": {
        "props": {
          "position": [
            {
              "frame": 0,
              "value": [
                -1.8,
                -22.7
              ]
            },
            {
              "frame": 0.4166666666666667,
              "value": [
                -1.4,
                22.3
              ]
            },
            {
              "frame": 0.9833333333333333,
              "value": [
                -1.4,
                22.3
              ]
            },
            {
              "frame": 1.3666666666666667,
              "value": [
                -1.8,
                -22.7
              ]
            }
          ],
          "scale": [
            {
              "frame": 0,
              "value": {
                "__type__": "cc.Vec2",
                "x": 1,
                "y": 1
              }
            },
            {
              "frame": 0.31666666666666665,
              "value": {
                "__type__": "cc.Vec2",
                "x": 0.6,
                "y": 0.6
              }
            },
            {
              "frame": 0.4166666666666667,
              "value": {
                "__type__": "cc.Vec2",
                "x": 1.2,
                "y": 1.2
              }
            },
            {
              "frame": 0.5,
              "value": {
                "__type__": "cc.Vec2",
                "x": 0.8,
                "y": 0.8
              }
            },
            {
              "frame": 0.5833333333333334,
              "value": {
                "__type__": "cc.Vec2",
                "x": 1,
                "y": 1
              }
            }
          ]
        }
      },
      "loading": {
        "props": {
          "rotation": [
            {
              "frame": 0.6666666666666666,
              "value": 0
            },
            {
              "frame": 0.9333333333333333,
              "value": 45
            },
            {
              "frame": 1.4166666666666667,
              "value": 45
            },
            {
              "frame": 2.183333333333333,
              "value": 360
            }
          ]
        }
      },
      "_Content/_Dian/Candara_mini1": {
        "props": {
          "position": [
            {
              "frame": 0,
              "value": [
                61.3,
                -92
              ]
            },
            {
              "frame": 0.16666666666666666,
              "value": [
                61.3,
                -85.5384615
              ]
            },
            {
              "frame": 0.3333333333333333,
              "value": [
                61.3,
                -92
              ]
            },
            {
              "frame": 1,
              "value": [
                61.3,
                -92
              ]
            },
            {
              "frame": 1.1666666666666667,
              "value": [
                61.3,
                -85
              ]
            },
            {
              "frame": 1.3333333333333333,
              "value": [
                61.3,
                -92
              ]
            }
          ]
        }
      },
      "_Content/_Dian/Candara_mini2": {
        "props": {
          "position": [
            {
              "frame": 0.16666666666666666,
              "value": [
                70.7,
                -92
              ]
            },
            {
              "frame": 0.3333333333333333,
              "value": [
                70.7,
                -85
              ]
            },
            {
              "frame": 0.5,
              "value": [
                70.7,
                -92
              ]
            },
            {
              "frame": 1.1666666666666667,
              "value": [
                70.7,
                -92
              ]
            },
            {
              "frame": 1.3333333333333333,
              "value": [
                70.7,
                -85
              ]
            },
            {
              "frame": 1.5,
              "value": [
                70.7,
                -92
              ]
            }
          ]
        }
      },
      "_Content/_Dian/Candara_mini3": {
        "props": {
          "position": [
            {
              "frame": 0.3333333333333333,
              "value": [
                80.5,
                -92
              ]
            },
            {
              "frame": 0.5,
              "value": [
                80.5,
                -85
              ]
            },
            {
              "frame": 0.6833333333333333,
              "value": [
                80.5,
                -92
              ]
            },
            {
              "frame": 1.3333333333333333,
              "value": [
                80.5,
                -92
              ]
            },
            {
              "frame": 1.5,
              "value": [
                80.5,
                -85
              ]
            },
            {
              "frame": 1.6666666666666667,
              "value": [
                80.5,
                -92
              ]
            }
          ]
        }
      }
    }
  },
  "events": []
}